%YAML 1.1
%TAG !u! tag:unity3d.com,2011:
--- !u!1001 &4434904450584304385
PrefabInstance:
  m_ObjectHideFlags: 0
  serializedVersion: 2
  m_Modification:
    m_TransformParent: {fileID: 0}
    m_Modifications:
    - target: {fileID: 7284714316471590861, guid: afc643633ab023c4388802faf53d3b63,
        type: 3}
      propertyPath: m_Name
      value: cle1
      objectReference: {fileID: 0}
    - target: {fileID: 7281834347675608211, guid: afc643633ab023c4388802faf53d3b63,
        type: 3}
      propertyPath: m_LocalPosition.x
      value: 9.595
      objectReference: {fileID: 0}
    - target: {fileID: 7281834347675608211, guid: afc643633ab023c4388802faf53d3b63,
        type: 3}
      propertyPath: m_LocalPosition.y
      value: 0.519
      objectReference: {fileID: 0}
    - target: {fileID: 7281834347675608211, guid: afc643633ab023c4388802faf53d3b63,
        type: 3}
      propertyPath: m_LocalPosition.z
      value: 0
      objectReference: {fileID: 0}
    - target: {fileID: 7281834347675608211, guid: afc643633ab023c4388802faf53d3b63,
        type: 3}
      propertyPath: m_LocalRotation.x
      value: 0
      objectReference: {fileID: 0}
    - target: {fileID: 7281834347675608211, guid: afc643633ab023c4388802faf53d3b63,
        type: 3}
      propertyPath: m_LocalRotation.y
      value: 0
      objectReference: {fileID: 0}
    - target: {fileID: 7281834347675608211, guid: afc643633ab023c4388802faf53d3b63,
        type: 3}
      propertyPath: m_LocalRotation.z
      value: 0
      objectReference: {fileID: 0}
    - target: {fileID: 7281834347675608211, guid: afc643633ab023c4388802faf53d3b63,
        type: 3}
      propertyPath: m_LocalRotation.w
      value: 1
      objectReference: {fileID: 0}
    - target: {fileID: 7281834347675608211, guid: afc643633ab023c4388802faf53d3b63,
        type: 3}
      propertyPath: m_RootOrder
      value: 0
      objectReference: {fileID: 0}
    - target: {fileID: 7281834347675608211, guid: afc643633ab023c4388802faf53d3b63,
        type: 3}
      propertyPath: m_LocalEulerAnglesHint.x
      value: 0
      objectReference: {fileID: 0}
    - target: {fileID: 7281834347675608211, guid: afc643633ab023c4388802faf53d3b63,
        type: 3}
      propertyPath: m_LocalEulerAnglesHint.y
      value: 0
      objectReference: {fileID: 0}
    - target: {fileID: 7281834347675608211, guid: afc643633ab023c4388802faf53d3b63,
        type: 3}
      propertyPath: m_LocalEulerAnglesHint.z
      value: 0
      objectReference: {fileID: 0}
    - target: {fileID: 7281834347675608211, guid: afc643633ab023c4388802faf53d3b63,
        type: 3}
      propertyPath: m_LocalScale.x
      value: 0.307
      objectReference: {fileID: 0}
    - target: {fileID: 7281834347675608211, guid: afc643633ab023c4388802faf53d3b63,
        type: 3}
      propertyPath: m_LocalScale.y
      value: 0.307
      objectReference: {fileID: 0}
    - target: {fileID: 7281834347675608211, guid: afc643633ab023c4388802faf53d3b63,
        type: 3}
      propertyPath: m_LocalScale.z
      value: 0.307
      objectReference: {fileID: 0}
    - target: {fileID: 7488567573043198721, guid: afc643633ab023c4388802faf53d3b63,
        type: 3}
      propertyPath: m_Sprite
      value: 
      objectReference: {fileID: 6265055723696787194, guid: 4ea65c00865e18d4dbd7b85bf63a4a6a,
        type: 3}
    - target: {fileID: 7227576829114296831, guid: afc643633ab023c4388802faf53d3b63,
        type: 3}
      propertyPath: m_Enabled
      value: 0
      objectReference: {fileID: 0}
    - target: {fileID: 7335811137145620913, guid: afc643633ab023c4388802faf53d3b63,
        type: 3}
      propertyPath: m_Offset.y
      value: 0.2478047
      objectReference: {fileID: 0}
    - target: {fileID: 7335811137145620913, guid: afc643633ab023c4388802faf53d3b63,
        type: 3}
      propertyPath: m_Radius
      value: 1.7898377
      objectReference: {fileID: 0}
    m_RemovedComponents: []
  m_SourcePrefab: {fileID: 100100000, guid: afc643633ab023c4388802faf53d3b63, type: 3}
