%YAML 1.1
%TAG !u! tag:unity3d.com,2011:
--- !u!1001 &5299419339923940950
PrefabInstance:
  m_ObjectHideFlags: 0
  serializedVersion: 2
  m_Modification:
    m_TransformParent: {fileID: 0}
    m_Modifications:
    - target: {fileID: 6498886752634560330, guid: b99afeb5bde996a4c9ecbc277014acfe,
        type: 3}
      propertyPath: m_Name
      value: TilemapGrid
      objectReference: {fileID: 0}
    - target: {fileID: 6498886752634560329, guid: b99afeb5bde996a4c9ecbc277014acfe,
        type: 3}
      propertyPath: m_LocalPosition.x
      value: 33.7
      objectReference: {fileID: 0}
    - target: {fileID: 6498886752634560329, guid: b99afeb5bde996a4c9ecbc277014acfe,
        type: 3}
      propertyPath: m_LocalPosition.y
      value: 0
      objectReference: {fileID: 0}
    - target: {fileID: 6498886752634560329, guid: b99afeb5bde996a4c9ecbc277014acfe,
        type: 3}
      propertyPath: m_LocalPosition.z
      value: 0
      objectReference: {fileID: 0}
    - target: {fileID: 6498886752634560329, guid: b99afeb5bde996a4c9ecbc277014acfe,
        type: 3}
      propertyPath: m_LocalRotation.x
      value: 0
      objectReference: {fileID: 0}
    - target: {fileID: 6498886752634560329, guid: b99afeb5bde996a4c9ecbc277014acfe,
        type: 3}
      propertyPath: m_LocalRotation.y
      value: 0
      objectReference: {fileID: 0}
    - target: {fileID: 6498886752634560329, guid: b99afeb5bde996a4c9ecbc277014acfe,
        type: 3}
      propertyPath: m_LocalRotation.z
      value: 0
      objectReference: {fileID: 0}
    - target: {fileID: 6498886752634560329, guid: b99afeb5bde996a4c9ecbc277014acfe,
        type: 3}
      propertyPath: m_LocalRotation.w
      value: 1
      objectReference: {fileID: 0}
    - target: {fileID: 6498886752634560329, guid: b99afeb5bde996a4c9ecbc277014acfe,
        type: 3}
      propertyPath: m_RootOrder
      value: 0
      objectReference: {fileID: 0}
    - target: {fileID: 6498886752634560329, guid: b99afeb5bde996a4c9ecbc277014acfe,
        type: 3}
      propertyPath: m_LocalEulerAnglesHint.x
      value: 0
      objectReference: {fileID: 0}
    - target: {fileID: 6498886752634560329, guid: b99afeb5bde996a4c9ecbc277014acfe,
        type: 3}
      propertyPath: m_LocalEulerAnglesHint.y
      value: 0
      objectReference: {fileID: 0}
    - target: {fileID: 6498886752634560329, guid: b99afeb5bde996a4c9ecbc277014acfe,
        type: 3}
      propertyPath: m_LocalEulerAnglesHint.z
      value: 0
      objectReference: {fileID: 0}
    m_RemovedComponents: []
  m_SourcePrefab: {fileID: 100100000, guid: b99afeb5bde996a4c9ecbc277014acfe, type: 3}
